…
Pegando todo el código junto...

    at_barrio <- select(at_ciudadano, DOMICILIO_BARRIO, RUBRO)

    at_barrio <- filter(at_barrio, RUBRO == 'DENUNCIAS SOBRE INCONDUCTAS REFERIDAS A LA ACTUACION POLICIAL' | RUBRO == 'EMERGENCIAS' |  RUBRO == 'SEGURIDAD' | RUBRO == 'SEGURIDAD E HIGIENE' | RUBRO == 'VEHICULOS DE FANTASIA')

    at_barrio_agg <- group_by(at_barrio, DOMICILIO_BARRIO)

    at_barrio_agg <- summarize(at_barrio_agg, total=n())

    arrange(at_barrio_agg, desc(total))

    ## # A tibble: 44 x 2
    ##    DOMICILIO_BARRIO total
    ##    <fct>            <int>
    ##  1 BALVANERA          108
    ##  2 SAN NICOLAS        108
    ##  3 FLORES              92
    ##  4 CONSTITUCION        65
    ##  5 MONSERRAT           63
    ##  6 PALERMO             60
    ##  7 RECOLETA            48
    ##  8 CABALLITO           46
    ##  9 BELGRANO            40
    ## 10 VILLA URQUIZA       35
    ## # ... with 34 more rows
…
El último paso es "unir" las dos tablas. Para eso vamos a usar el
operador `left_join`.

    barrios <- left_join(delitos_barrio, at_barrio)
    barrios

    ## # A tibble: 48 x 3
    ##    barrio       total DOMICILIO_BARRIO
    ##    <fct>        <int> <fct>           
    ##  1 PALERMO      19055 <NA>            
    ##  2 BALVANERA    15816 <NA>            
    ##  3 FLORES       12939 <NA>            
    ##  4 SAN NICOLAS  11586 <NA>            
    ##  5 CABALLITO    11573 <NA>            
    ##  6 RECOLETA     10974 <NA>            
    ##  7 ALMAGRO       9539 <NA>            
    ##  8 BELGRANO      7814 <NA>            
    ##  9 VILLA LUGANO  7674 <NA>            
    ## 10 BARRACAS      6919 <NA>            
    ## # ... with 38 more rows
…
    barrios <- left_join(delitos_barrio, at_barrio, by='barrio') %>%
                            rename(n_delitos = total.x, n_reclamos=total.y)

    ## Warning: Column `barrio` joining factors with different levels, coercing to
    ## character vector

Podríamos filtrarlos fácilmente:

    barrios %>%
            filter(!is.na(n_reclamos))

    ## # A tibble: 44 x 3
    ##    barrio       n_delitos n_reclamos
    ##    <chr>            <int>      <int>
    ##  1 PALERMO          19055         60
    ##  2 BALVANERA        15816        108
    ##  3 FLORES           12939         92
    ##  4 SAN NICOLAS      11586        108
    ##  5 CABALLITO        11573         46
    ##  6 RECOLETA         10974         48
    ##  7 ALMAGRO           9539         19
    ##  8 BELGRANO          7814         40
    ##  9 VILLA LUGANO      7674          3
    ## 10 BARRACAS          6919         12
    ## # ... with 34 more rows
…
